%YAML 1.1
%TAG !u! tag:unity3d.com,2011:
--- !u!162 &1
EditorUserSettings:
  m_ObjectHideFlags: 0
  serializedVersion: 4
  m_ConfigSettings:
    RecentlyUsedScenePath-0:
      value: 224247031146464f081d186c052d56040f
      flags: 0
    RecentlyUsedScenePath-1:
      value: 22424703114646680e0b0227036c6c111b07142f1f2b233e2867083debf42d
      flags: 0
    RecentlyUsedScenePath-2:
      value: 224247031146466b0501182d1e6c6f181903172419262f2434071827f5ef2633ebe931a6c33f32332a4ddf290a1c002cfb091a46c21e1e040307fc025ecc13161fc00b8a2add113eca0a15cdde50e3ecdadb94ecd7f9a78a90caaefbe0e9
      flags: 0
    RecentlyUsedScenePath-3:
      value: 224247031146466b0501182d1e6c6f181903172419262f2434071827f5ef2633ebe931a6c33f32332a4ddf290a1c002cfb091a46c21e1e040307fc025ecc13161fc00b8a2add113eca0a15cdde50fde2c0d8d7e2ddf9a9cdd0d6b4eb
      flags: 0
    RecentlyUsedScenePath-4:
      value: 224247031146466b0501182d1e6c6f181903172419262f2434071827f5ef2633ebe931a6c33f32332a4ddf290a1c002cfb091a46c21e1e040307fc025ecc13161fc00b8a2add113eca0a15cdde50e3ecdadb94ecd7f9a78990caaefbe0e9
      flags: 0
    RecentlyUsedScenePath-5:
      value: 224247031146467102171f361920545026161b21630d3e3120391136f1af1120e3ea26e5e27a0c3f3c0cea721130082beb
      flags: 0
    RecentlyUsedScenePath-6:
      value: 22424703114646680e0b0227036c78111b12587b623d28393930
      flags: 0
    RecentlyUsedScenePath-7:
      value: 22424703114646680e0b0227036c78111b12563f22213229
      flags: 0
    RecentlyUsedScenePath-8:
      value: 22424703114646680e0b0227036c4b150503563f22213229
      flags: 0
    RecentlyUsedScenePath-9:
      value: 22424703114646680e0b0227036c731f1415016439262f2434
      flags: 0
    vcSharedLogLevel:
      value: 0d5e400f0650
      flags: 0
  m_VCAutomaticAdd: 1
  m_VCDebugCom: 0
  m_VCDebugCmd: 0
  m_VCDebugOut: 0
  m_SemanticMergeMode: 2
  m_VCShowFailedCheckout: 1
  m_VCOverwriteFailedCheckoutAssets: 1
  m_VCProjectOverlayIcons: 1
  m_VCHierarchyOverlayIcons: 1
  m_VCOtherOverlayIcons: 1
  m_VCAllowAsyncUpdate: 0
